Seurat Analysis
…
## For a more efficient implementation of the Wilcoxon Rank Sum Test,
## (default method for FindMarkers) please install the limma package
## --------------------------------------------
## install.packages('BiocManager')
## BiocManager::install('limma')
## --------------------------------------------
## After installation of limma, Seurat will automatically use the more 
## efficient implementation (no further action necessary).
## This message will be shown once per session
## Calculating cluster 1
## Calculating cluster 2
## Calculating cluster 3
## Calculating cluster 4

## # A tibble: 50 x 7
## # Groups:   cluster [5]
##       p_val avg_log2FC pct.1 pct.2 p_val_adj cluster gene  
##       <dbl>      <dbl> <dbl> <dbl>     <dbl> <fct>   <chr> 
##  1 1.80e-16       1.44 1     0.975  1.67e-13 0       Gpi1  
##  2 4.44e-16       1.68 0.986 0.949  4.11e-13 0       Trp53 
##  3 6.15e-15       1.76 0.944 0.802  5.70e-12 0       Gdf3  
##  4 1.56e-14       1.93 0.93  0.695  1.45e-11 0       Ralb  
##  5 3.49e-13       1.55 0.972 0.838  3.23e-10 0       Zfp704
##  6 5.78e-13       1.68 0.887 0.503  5.35e-10 0       Tns1  
##  7 3.88e-12       1.70 0.958 0.807  3.59e- 9 0       Gcat  
##  8 1.34e-11       2.12 0.592 0.208  1.24e- 8 0       Gpa33 
##  9 5.64e-11       1.48 0.972 0.888  5.23e- 8 0       Adi1  
## 10 4.40e- 9       1.91 0.408 0.107  4.08e- 6 0       Cd109 
## # i 40 more rows
…
